				ITEM LIST
------------------------------------------------------------------------------
 No.     Product Code       Unit Price         Quantity	      Subtotal Price
------------------------------------------------------------------------------
   1        BWE94624X          234.557               25	      5863.918

------------------------------------------------------------------------------
TOTAL:
        100 item(s)            543.235              345	      67.352
------------------------------------------------------------------------------
